{
    "KPlugin": {
        "Authors": [
            {
                "Email": "ltinkl@redhat.com",
                "Name": "Lukáš Tinkl",
                "Name[ar]": "Lukáš Tinkl",
                "Name[ast]": "Lukáš Tinkl",
                "Name[az]": "Lukáš Tinkl",
                "Name[bg]": "Lukáš Tinkl",
                "Name[ca@valencia]": "Lukáš Tinkl",
                "Name[ca]": "Lukáš Tinkl",
                "Name[cs]": "Lukáš Tinkl",
                "Name[de]": "Lukáš Tinkl",
                "Name[el]": "Lukáš Tinkl",
                "Name[en_GB]": "Lukáš Tinkl",
                "Name[eo]": "Lukáš Tinkl",
                "Name[es]": "Lukáš Tinkl",
                "Name[eu]": "Lukáš Tinkl",
                "Name[fi]": "Lukáš Tinkl",
                "Name[fr]": "Lukáš Tinkl",
                "Name[gl]": "Lukáš Tinkl",
                "Name[he]": "לוקאש טינקל",
                "Name[hu]": "Lukáš Tinkl",
                "Name[ia]": "Lukáš Tinkl",
                "Name[is]": "Lukáš Tinkl",
                "Name[it]": "Lukáš Tinkl",
                "Name[ja]": "Lukáš Tinkl",
                "Name[ka]": "Lukáš Tinkl",
                "Name[ko]": "Lukáš Tinkl",
                "Name[lt]": "Lukáš Tinkl",
                "Name[lv]": "Lukáš Tinkl",
                "Name[nl]": "Lukáš Tinkl",
                "Name[nn]": "Lukáš Tinkl",
                "Name[pa]": "ਲੁਕੇਸ ਟਿੰਕਲ",
                "Name[pl]": "Lukáš Tinkl",
                "Name[pt]": "Lukáš Tinkl",
                "Name[pt_BR]": "Lukáš Tinkl",
                "Name[ro]": "Lukáš Tinkl",
                "Name[ru]": "Lukáš Tinkl",
                "Name[sk]": "Lukáš Tinkl",
                "Name[sl]": "Lukáš Tinkl",
                "Name[sv]": "Lukáš Tinkl",
                "Name[ta]": "லூக்காஸ் டிங்க்குள்",
                "Name[tr]": "Lukáš Tinkl",
                "Name[uk]": "Lukáš Tinkl",
                "Name[x-test]": "xxLukáš Tinklxx",
                "Name[zh_CN]": "Lukáš Tinkl",
                "Name[zh_TW]": "Lukáš Tinkl"
            }
        ],
        "Category": "VPNService",
        "Description": "Compatible with Microsoft and other PPTP VPN servers",
        "Description[ar]": "متوافق مع «مايكروسوفت» وخواديم PPTP VPN الأخرى",
        "Description[az]": "Microsoft və digər PPTP VPN serverləri ilə uyğun",
        "Description[bg]": "Съвместим с Microsoft и други PPTP VPN сървъри",
        "Description[ca@valencia]": "Compatible amb Microsoft i altres servidors VPN sobre PPTP",
        "Description[ca]": "Compatible amb Microsoft i altres servidors VPN sobre PPTP",
        "Description[cs]": "Kompatibilní se servery Microsoft  a jinými PPTP VPN",
        "Description[de]": "Mit PPTP-VPN-Servern von Microsoft und anderen kompatibel",
        "Description[el]": "Συμβατό με διακομιστές Microsoft και άλλους διακομιστές PPTP VPN",
        "Description[en_GB]": "Compatible with Microsoft and other PPTP VPN servers",
        "Description[eo]": "Kongrua kun Microsoft kaj aliaj PPTP VPN-serviloj",
        "Description[es]": "Compatible con Microsoft y otros servidores PPTP VPN",
        "Description[eu]": "Microsoft eta beste PPTP VPN zerbitzari batzuekin bateragarria",
        "Description[fi]": "Yhteensopiva Microsoftin ja muiden PPTP-VPN-palvelinten kanssa",
        "Description[fr]": "Compatible avec les serveurs Microsoft et autres VPN « PPTP »",
        "Description[gl]": "Compatíbel con servidores de VPN de Microsoft e outros servidores de VPN que usen PPTP.",
        "Description[he]": "תאימות לשרתי מיקרוסופט המשתמשים ב־PPTP VPN",
        "Description[hu]": "Kompatibilis a Microsoft és más PPTP VPN kiszolgálókkal",
        "Description[ia]": "Compatibile con Microsoft e altere servitores PPTP VPN",
        "Description[is]": "Samhæft við Microsoft og aðra PPTP VPN netþjóna",
        "Description[it]": "Compatibile con Microsoft e altri server VPN PPTP",
        "Description[ja]": "Microsoft と他の PPTP VPN サーバに対応",
        "Description[ka]": "Microsoft და სხვა PPTP VPN სერვერებთან თავსებადი",
        "Description[ko]": "Microsoft 및 기타 PPTP VPN 서버와 호환됨",
        "Description[lt]": "Suderinamas su „Microsoft“ ir kitais PPTP VPN serveriais",
        "Description[lv]": "Saderīgs ar „Microsoft“ un citiem PPTP VPN serveriem",
        "Description[nl]": "Compatibel met Microsoft en andere PPTP VPN servers",
        "Description[nn]": "Kompatibel med Microsoft og andre PPTP VPN-tenarar",
        "Description[pa]": "ਮਾਈਕਰੋਸਾਫਟ ਅਤੇ ਹੋਰ PPTP VPN ਸਰਵਰਾਂ ਲਈ ਢੁਕਵਾਂ",
        "Description[pl]": "Zgodny z serwerami VPN Microsoft-u i innymi PPTP",
        "Description[pt]": "Compatível com os servidores de VPN PPTP da Microsoft e outros",
        "Description[pt_BR]": "Compatível com servidores VPN PPTP da Microsoft e outros",
        "Description[ru]": "Совместимая с серверами PPTP от Microsoft и другими",
        "Description[sk]": "Kompatibilné so servermi Microsoft a inými servermi PPTP VPN",
        "Description[sl]": "Združljiv z Microsoftovimi in drugimi PPTP strežniki VPN",
        "Description[sv]": "Kompatibel med Microsoft och andra PPTP VPN-servrar",
        "Description[tr]": "Microsoft ve diğer PPTP VPN sunucuları ile uyumlu",
        "Description[uk]": "Сумісні з Microsoft та іншими серверами VPN PPTP",
        "Description[x-test]": "xxCompatible with Microsoft and other PPTP VPN serversxx",
        "Description[zh_CN]": "兼容 Microsoft 和其他 PPTP VPN 服务器",
        "Description[zh_TW]": "與微軟和其他 PPTP VPN 伺服器相容",
        "EnabledByDefault": false,
        "Icon": "",
        "License": "GPL",
        "Name": "Point-to-Point Tunneling Protocol (PPTP)",
        "Name[ar]": "ميفاق النقطة لنقطة النفقي (PPTP)",
        "Name[az]": "Nöqtə-nöqtə növlü tunel protokolu (PPTP)",
        "Name[bg]": "Point-to-Point Tunneling Protocol (PPTP)",
        "Name[ca@valencia]": "Protocol per a crear túnels Punt-a-Punt (PPTP)",
        "Name[ca]": "Protocol per a crear túnels Punt-a-Punt (PPTP)",
        "Name[cs]": "Point-to-Point Tunneling Protocol (PPTP)",
        "Name[da]": "Point-to-Point tunneling-protokol (PPTP)",
        "Name[de]": "Point-to-Point-Tunnel-Protokoll (PPTP)",
        "Name[el]": "Πρωτόκολλο διοχέτευσης σημείου προς σημείο (PPTP)",
        "Name[en_GB]": "Point-to-Point Tunneling Protocol (PPTP)",
        "Name[eo]": "Punkto-al-Punkta Tunelado-Protokolo (PPTP)",
        "Name[es]": "Protocolo de túneles punto a punto (PPTP)",
        "Name[et]": "Point-to-Point Tunneling Protocol (PPTP)",
        "Name[eu]": "Puntutik punturako tunel-protokoloa (PPTP)",
        "Name[fi]": "Point-to-Point-tunnelointiyhteyskäytäntö (PPTP)",
        "Name[fr]": "Protocole de tunnel point à point (PPTP)",
        "Name[gl]": "Protocolo de canalización punto a punto (PPTP)",
        "Name[he]": "Point-to-Point Tunneling Protocol (PPTP)",
        "Name[hsb]": "Point-to-Point Tunneling Protocol (PPTP)",
        "Name[hu]": "Point-to-Point Tunneling Protocol (PPTP)",
        "Name[ia]": "Point-to-Point Tunneling Protocol (PPTP)",
        "Name[id]": "Point-to-Point Tunneling Protocol (PPTP)",
        "Name[is]": "Point-to-Point Tunneling Protocol (PPTP)",
        "Name[it]": "Point-to-Point Tunneling Protocol (PPTP)",
        "Name[ja]": "ポイントツーポイント トンネリングプロトコル (PPTP)",
        "Name[ka]": "წერტილიდან-წერტილამდე-გვირაბის პროტოკოლი (PPTP)",
        "Name[ko]": "지점 대 지점 터널링 프로토콜(PPTP)",
        "Name[lt]": "Tiesioginio tuneliavimo protokolas (PPTP)",
        "Name[lv]": "Tunelēšanas divpunktu protokols (PPTP)",
        "Name[nl]": "Point-to-Point Tunneling Protocol (PPTP)",
        "Name[nn]": "Point-to-Point Tunneling Protocol (PPTP)",
        "Name[pa]": "ਪੁਆਇੰਟ-ਟੂ-ਪੁਆਇੰਟ ਟਨਲਿੰਗ ਪਰੋਟੋਕਾਲ (PPTP)",
        "Name[pl]": "Protokół tunelujący punkt-do-punktu (PPTP)",
        "Name[pt]": "Protocolo de Túneis Ponto-a-Ponto (PPTP)",
        "Name[pt_BR]": "Point-to-Point Tunneling Protocol (PPTP)",
        "Name[ru]": "Туннельный протокол типа точка-точка (PPTP)",
        "Name[sk]": "Point-to-Point Tunneling Protocol (PPTP)",
        "Name[sl]": "Protokol za tuneliranje od točke do točke (PPTP)",
        "Name[sr@ijekavian]": "ППТП (тунелски протокол тачка–тачка)",
        "Name[sr@ijekavianlatin]": "PPTP (tunelski protokol tačka–tačka)",
        "Name[sr@latin]": "PPTP (tunelski protokol tačka–tačka)",
        "Name[sr]": "ППТП (тунелски протокол тачка–тачка)",
        "Name[sv]": "Punkt-till-punkt tunnelprotkoll (PPTP)",
        "Name[tr]": "Noktadan Noktaya Tünel Protokolü (PPTP)",
        "Name[uk]": "Протокол тунелювання точка-до-точки (PPTP)",
        "Name[x-test]": "xxPoint-to-Point Tunneling Protocol (PPTP)xx",
        "Name[zh_CN]": "点对点隧道协议 (PPTP)",
        "Name[zh_TW]": "點對點通道協定 (PPTP)",
        "Version": "0.1",
        "Website": ""
    },
    "X-NetworkManager-Services": "org.freedesktop.NetworkManager.pptp"
}
