{
    "KPlugin": {
        "Authors": [
            {
                "Email": "jgrulich@redhat.com",
                "Name": "Jan Grulich",
                "Name[ar]": "Jan Grulich",
                "Name[az]": "Jan Grulich",
                "Name[bg]": "Jan Grulich",
                "Name[ca@valencia]": "Jan Grulich",
                "Name[ca]": "Jan Grulich",
                "Name[cs]": "Jan Grulich",
                "Name[de]": "Jan Grulich",
                "Name[el]": "Jan Grulich",
                "Name[en_GB]": "Jan Grulich",
                "Name[eo]": "Jan Grulich",
                "Name[es]": "Jan Grulich",
                "Name[eu]": "Jan Grulich",
                "Name[fi]": "Jan Grulich",
                "Name[fr]": "Jan Grulich",
                "Name[gl]": "Jan Grulich",
                "Name[he]": "יאן גרוליך",
                "Name[hu]": "Jan Grulich",
                "Name[ia]": "Jan Grulich",
                "Name[is]": "Jan Grulich",
                "Name[it]": "Jan Grulich",
                "Name[ja]": "Jan Grulich",
                "Name[ka]": "Jan Grulich",
                "Name[ko]": "Jan Grulich",
                "Name[lt]": "Jan Grulich",
                "Name[lv]": "Jan Grulich",
                "Name[nl]": "Jan Grulich",
                "Name[nn]": "Jan Gruhlich",
                "Name[pl]": "Jan Grulich",
                "Name[pt]": "Jan Grulich",
                "Name[pt_BR]": "Jan Grulich",
                "Name[ro]": "Jan Grulich",
                "Name[ru]": "Jan Grulich",
                "Name[sk]": "Jan Grulich",
                "Name[sl]": "Jan Grulich",
                "Name[sv]": "Jan Grulich",
                "Name[ta]": "ஜான் குரூலிச்",
                "Name[tr]": "Jan Grulich",
                "Name[uk]": "Jan Grulich",
                "Name[x-test]": "xxJan Grulichxx",
                "Name[zh_CN]": "Jan Grulich",
                "Name[zh_TW]": "Jan Grulich"
            }
        ],
        "Category": "VPNService",
        "Description": "Compatible with Juniper Network Connect",
        "Description[ar]": "متوافق مع خادوم جونيبر نتورك كونيكت",
        "Description[az]": "Juniper Şəbəkə Bağlantısı ilə uyğun",
        "Description[bg]": "Съвместим с Juniper Network Connect",
        "Description[ca@valencia]": "Compatible amb la Juniper Network Connect",
        "Description[ca]": "Compatible amb la Juniper Network Connect",
        "Description[cs]": "Juniper Network Connect",
        "Description[de]": "Kompatibel mit Juniper Network Connect",
        "Description[el]": "Συμβατό με Juniper Network Connect",
        "Description[en_GB]": "Compatible with Juniper Network Connect",
        "Description[eo]": "Kongrua kun Juniper Network Connect",
        "Description[es]": "Compatible con Juniper Network Connect",
        "Description[eu]": "Juniper Network Connect-ekin bateragarria",
        "Description[fi]": "Yhteensopiva Juniper Network Connectin kanssa",
        "Description[fr]": "Compatible avec « Juniper Network Connect »",
        "Description[gl]": "Compatíbel con Juniper Network Connect.",
        "Description[he]": "תאימות ל־Cisco AnyConnect SSL VPN",
        "Description[hu]": "Kompatibilis a Juniper Network Connecttel",
        "Description[ia]": "Compatibile con Juniper Network Connect",
        "Description[is]": "Samhæft við Juniper Network Connect",
        "Description[it]": "Compatibile con Juniper Network Connect",
        "Description[ja]": "Juniper Network Connect に対応",
        "Description[ka]": "Juniper Network Connect-თან თავსებადი",
        "Description[ko]": "Juniper Network Connect와 호환됨",
        "Description[lt]": "Suderinamas su Juniper Network Connect",
        "Description[lv]": "Saderīgs ar „Juniper Network Connect“",
        "Description[nl]": "Compatibel met Juniper Network Connect",
        "Description[nn]": "Kompatibel med Juniper Network Connect",
        "Description[pa]": "ਜੂਨੀਪਰ ਨੈੱਟਵਰਕ ਕਨੈਕਟ ਲਈ ਢੁਕਵਾਂ",
        "Description[pl]": "Zgodny z  Juniper Network Connect",
        "Description[pt]": "Compatível com o Juniper Network Connect",
        "Description[pt_BR]": "Compatível com o conector de rede Juniper",
        "Description[ru]": "Совместимая с Juniper Network Connect",
        "Description[sk]": "Kompatibilné s Juniper Network Connect",
        "Description[sl]": "Združljivo z Juniper Network Connect",
        "Description[sv]": "Kompatibel med Juniper Network Connect",
        "Description[tr]": "Juniper Network Connect ile uyumlu",
        "Description[uk]": "Сумісний із Juniper Network Connect",
        "Description[x-test]": "xxCompatible with Juniper Network Connectxx",
        "Description[zh_CN]": "兼容 Juniper Network Connect",
        "Description[zh_TW]": "與 Juniper Network Connect 相容",
        "EnabledByDefault": false,
        "Icon": "",
        "License": "GPL",
        "Name": "Juniper SSL VPN (openconnect)",
        "Name[ar]": "خادم جونيبر SSL VPN بواسطة (openconnect)",
        "Name[az]": "Juniper SSL VPN (openconnect)",
        "Name[bg]": "Juniper SSL VPN (openconnect)",
        "Name[ca@valencia]": "VPN SSL Juniper (openconnect)",
        "Name[ca]": "VPN SSL Juniper (openconnect)",
        "Name[cs]": "Juniper SSL VPN (openconnect)",
        "Name[de]": "Juniper SSL VPN (openconnect)",
        "Name[el]": "Juniper SSL VPN (openconnect)",
        "Name[en_GB]": "Juniper SSL VPN (openconnect)",
        "Name[eo]": "Juniper SSL VPN (malferma konekto)",
        "Name[es]": "VPN Juniper SSL (openconnect)",
        "Name[eu]": "Juniper SSL VPN (openconnect)",
        "Name[fi]": "Juniper SSL VPN (openconnect)",
        "Name[fr]": "VPN SSL Juniper (openconnect)",
        "Name[gl]": "VPN por SSL de Juniper (openconnect)",
        "Name[he]": "Juniper SSL VPN (openconnect)",
        "Name[hu]": "Juniper SSL VPN (openconnect)",
        "Name[ia]": "Juniper SSL VPN (openconnect)",
        "Name[is]": "Juniper SSL VPN (openconnect)",
        "Name[it]": "Juniper SSL VPN (openconnect)",
        "Name[ja]": "Juniper SSL VPN (openconnect)",
        "Name[ka]": "Juniper SSL VPN (openconnect)",
        "Name[ko]": "Juniper SSL VPN(openconnect)",
        "Name[lt]": "Juniper SSL VPN (openconnect)",
        "Name[lv]": "Juniper SSL VPN („openconnect“)",
        "Name[nl]": "Juniper SSL VPN (openconnect)",
        "Name[nn]": "Juniper SSL VPN (openconnect)",
        "Name[pa]": "ਜੁਨੀਪਰ SSL VPN (openconnect)",
        "Name[pl]": "Juniper SSL VPN (openconnect)",
        "Name[pt]": "Juniper SSL VPN (openconnect)",
        "Name[pt_BR]": "Juniper SSL VPN (openconnect)",
        "Name[ru]": "Juniper SSL VPN (openconnect)",
        "Name[sk]": "Juniper SSL VPN (openconnect)",
        "Name[sl]": "Juniper SSL VPN (openconnect)",
        "Name[sv]": "Juniper SSL VPN (openconnect)",
        "Name[tr]": "Juniper SSL VPN (openconnect)",
        "Name[uk]": "Juniper SSL VPN (openconnect)",
        "Name[x-test]": "xxJuniper SSL VPN (openconnect)xx",
        "Name[zh_CN]": "Juniper SSL VPN (openconnect)",
        "Name[zh_TW]": "Juniper SSL VPN (openconnect)",
        "Version": "0.1",
        "Website": ""
    },
    "X-NetworkManager-Services": "org.freedesktop.NetworkManager.openconnect",
    "X-NetworkManager-Services-Subtype": "nc"
}
